# Fdb version 3
["pdflatex"] 1480330208 "5-wymagania.tex" "5-wymagania.pdf" "5-wymagania" 1480330208
  "/home/vortex41/.texlive2015/texmf-var/web2c/xetex/xelatex.fmt" 1478987381 2326797 3ad067b8846c577299028e1b42e7fc6a ""
  "/usr/share/texlive/texmf-dist/web2c/texmf.cnf" 1455661086 31975 fb53f60aea2848f5f0183fb5127ea776 ""
  "5-wymagania.aux" 1480326077 8 a94a2480d3289e625eea47cd1b285758 ""
  "5-wymagania.tex" 1480330206 158 9af7c63af5eb24ee4b0266ff5a0f3d18 ""
  (generated)
  "5-wymagania.log"
  "5-wymagania.pdf"
